{
  "$schema": "https://chrpaul.de/schemas/tip-over/2022-07/schema.json",
  "id": "1",
  "jumperPosition": 17,
  "pieces": [
    {
      "position": 4,
      "height": 3
    },
    {
      "position": 7,
      "height": 3
    },
    {
      "position": 17,
      "height": 2
    },
    {
      "position": 26,
      "height": 1
    }
  ]
}