{
  "$schema": "https://chrpaul.de/schemas/tip-over/2022-07/schema.json",
  "id": "14",
  "jumperPosition": 6,
  "pieces": [
    {
      "position": 6,
      "height": 4
    },
    {
      "position": 8,
      "height": 3
    },
    {
      "position": 16,
      "height": 2
    },
    {
      "position": 17,
      "height": 2
    },
    {
      "position": 20,
      "height": 2
    },
    {
      "position": 26,
      "height": 2
    },
    {
      "position": 31,
      "height": 1
    }
  ]
}