{
  "$schema": "https://chrpaul.de/schemas/tip-over/2022-07/schema.json",
  "id": "21",
  "jumperPosition": 18,
  "pieces": [
    {
      "position": 1,
      "height": 4
    },
    {
      "position": 4,
      "height": 2
    },
    {
      "position": 5,
      "height": 3
    },
    {
      "position": 7,
      "height": 4
    },
    {
      "position": 13,
      "height": 2
    },
    {
      "position": 18,
      "height": 2
    },
    {
      "position": 19,
      "height": 3
    },
    {
      "position": 22,
      "height": 2
    },
    {
      "position": 23,
      "height": 2
    },
    {
      "position": 32,
      "height": 1
    }
  ]
}