{
  "$schema": "https://chrpaul.de/schemas/tip-over/2022-07/schema.json",
  "id": "31",
  "jumperPosition": 16,
  "pieces": [
    {
      "position": 10,
      "height": 2
    },
    {
      "position": 14,
      "height": 2
    },
    {
      "position": 15,
      "height": 2
    },
    {
      "position": 16,
      "height": 2
    },
    {
      "position": 17,
      "height": 3
    },
    {
      "position": 22,
      "height": 2
    },
    {
      "position": 24,
      "height": 1
    },
    {
      "position": 33,
      "height": 2
    },
    {
      "position": 35,
      "height": 3
    }
  ]
}