{
  "$schema": "https://chrpaul.de/schemas/tip-over/2022-07/schema.json",
  "id": "38",
  "jumperPosition": 10,
  "pieces": [
    {
      "position": 1,
      "height": 2
    },
    {
      "position": 4,
      "height": 2
    },
    {
      "position": 6,
      "height": 2
    },
    {
      "position": 7,
      "height": 2
    },
    {
      "position": 8,
      "height": 2
    },
    {
      "position": 9,
      "height": 2
    },
    {
      "position": 10,
      "height": 2
    },
    {
      "position": 16,
      "height": 2
    },
    {
      "position": 17,
      "height": 2
    },
    {
      "position": 22,
      "height": 2
    },
    {
      "position": 25,
      "height": 3
    },
    {
      "position": 28,
      "height": 3
    },
    {
      "position": 33,
      "height": 1
    },
    {
      "position": 35,
      "height": 3
    },
    {
      "position": 36,
      "height": 3
    }
  ]
}