{
  "$schema": "https://chrpaul.de/schemas/tip-over/2022-07/schema.json",
  "id": "6",
  "jumperPosition": 10,
  "pieces": [
    {
      "position": 10,
      "height": 2
    },
    {
      "position": 14,
      "height": 3
    },
    {
      "position": 25,
      "height": 4
    },
    {
      "position": 33,
      "height": 2
    },
    {
      "position": 34,
      "height": 4
    },
    {
      "position": 36,
      "height": 1
    }
  ]
}