{
  "$schema": "http://json-schema.org/draft-07/schema#",
  "$id": "http://chrpaul.de/rcc-schema/draft-01/track.json",
  "definitions": {
    "x": {
      "$id": "#/definitions/x",
      "type": "integer",
      "title": "Horizontal position on the board from left starting at 0",
      "default": 0,
      "examples": [
        3
      ]
    },
    "y": {
      "$id": "#/definitions/y",
      "type": "integer",
      "title": "Vertical position on the board from left starting at 0",
      "default": 0,
      "examples": [
        2
      ]
    },
    "direction": {
      "$id": "#/definitions/direction",
      "type": "string",
      "title": "Describes a cardinal direction a subsequent track piece can connect to",
      "default": "",
      "examples": [
        "W"
      ],
      "pattern": "^(N|E|S|W)$"
    },
    "entry": {
      "$id": "#/definitions/entry",
      "type": "string",
      "title": "Describes a cardinal direction a preceding track piece can connect to",
      "default": "",
      "examples": [
        "W"
      ],
      "pattern": "^(N|E|S|W)$"
    }
  },
  "type": "object",
  "title": "Roller Coaster Challenge Track",
  "required": [],
  "properties": {
    "xLength": {
      "$id": "#/properties/xLength",
      "type": "integer",
      "title": "The length of the grid in the x-dimension. (commonly horizontal)",
      "default": 5,
      "examples": [
        5
      ]
    },
    "yLength": {
      "$id": "#/properties/yLength",
      "type": "integer",
      "title": "The length of the grid in the y-dimension. (commonly vertical)",
      "default": 5,
      "examples": [
        5
      ]
    },
    "posts": {
      "$id": "#/properties/posts",
      "type": "array",
      "title": "The Posts Schema",
      "items": {
        "$id": "#/properties/posts/items",
        "type": "object",
        "title": "The Items Schema",
        "required": [
          "x",
          "y",
          "height"
        ],
        "properties": {
          "x": {
            "$ref": "#/definitions/x"
          },
          "y": {
            "$ref": "#/definitions/y"
          },
          "height": {
            "$id": "#/properties/posts/items/properties/height",
            "type": "integer",
            "title": "The Height Schema",
            "default": 0,
            "examples": [
              10
            ]
          }
        }
      }
    },
    "straightTracks": {
      "$id": "#/properties/straightTracks",
      "type": "array",
      "title": "The Straighttracks Schema",
      "items": {
        "$id": "#/properties/straightTracks/items",
        "type": "object",
        "title": "The Items Schema",
        "required": [
          "x",
          "y",
          "height",
          "direction",
          "length",
          "drop"
        ],
        "properties": {
          "x": {
            "$ref": "#/definitions/x"
          },
          "y": {
            "$ref": "#/definitions/y"
          },
          "height": {
            "$id": "#/properties/straightTracks/items/properties/height",
            "type": "integer",
            "title": "The Height Schema",
            "default": 0,
            "examples": [
              4
            ]
          },
          "direction": {
            "$ref": "#/definitions/entry"
          },
          "length": {
            "$id": "#/properties/straightTracks/items/properties/length",
            "type": "integer",
            "title": "The Length Schema",
            "default": 0,
            "examples": [
              1
            ]
          },
          "drop": {
            "$id": "#/properties/straightTracks/items/properties/drop",
            "type": "integer",
            "title": "The Drop Schema",
            "default": 0,
            "examples": [
              1
            ]
          }
        }
      }
    },
    "loops": {
      "$id": "#/properties/loops",
      "type": "array",
      "title": "The Loops Schema",
      "items": {
        "$id": "#/properties/loops/items",
        "type": "object",
        "title": "The Items Schema",
        "required": [
          "x",
          "y",
          "height",
          "direction"
        ],
        "properties": {
          "x": {
            "$ref": "#/definitions/x"
          },
          "y": {
            "$ref": "#/definitions/y"
          },
          "height": {
            "$id": "#/properties/loops/items/properties/height",
            "type": "integer",
            "title": "The Height Schema",
            "default": 0,
            "examples": [
              4
            ]
          },
          "direction": {
            "$ref": "#/definitions/entry"
          }
        }
      }
    },
    "curvedTracks": {
      "$id": "#/properties/curvedTracks",
      "type": "array",
      "title": "The Curvedtracks Schema",
      "items": {
        "$id": "#/properties/curvedTracks/items",
        "type": "object",
        "title": "The Items Schema",
        "required": [
          "x",
          "y",
          "height",
          "entry",
          "turn"
        ],
        "properties": {
          "x": {
            "$ref": "#/definitions/x"
          },
          "y": {
            "$ref": "#/definitions/y"
          },
          "height": {
            "$id": "#/properties/curvedTracks/items/properties/height",
            "type": "integer",
            "title": "The Height Schema",
            "default": 0,
            "examples": [
              4
            ]
          },
          "entry": {
            "$ref": "#/definitions/entry"
          },
          "turn": {
            "$id": "#/properties/curvedTracks/items/properties/turn",
            "type": "string",
            "title": "The Turn Schema",
            "default": "",
            "examples": [
              "right"
            ],
            "pattern": "^(.*)$"
          }
        }
      }
    },
    "start": {
      "$id": "#/properties/start",
      "type": "object",
      "title": "The Start Schema",
      "required": [
        "x",
        "y",
        "height",
        "direction"
      ],
      "properties": {
        "x": {
          "$ref": "#/definitions/x"
        },
        "y": {
          "$ref": "#/definitions/y"
        },
        "height": {
          "$id": "#/properties/start/properties/height",
          "type": "integer",
          "title": "The Height Schema",
          "default": 0,
          "examples": [
            10
          ]
        },
        "direction": {
          "$ref": "#/definitions/direction"
        }
      }
    },
    "end": {
      "$id": "#/properties/end",
      "type": "object",
      "title": "The End Schema",
      "required": [
        "x",
        "y",
        "height",
        "entry"
      ],
      "properties": {
        "x": {
          "$ref": "#/definitions/x"
        },
        "y": {
          "$ref": "#/definitions/y"
        },
        "height": {
          "$id": "#/properties/end/properties/height",
          "type": "integer",
          "title": "The Height Schema",
          "default": 0,
          "examples": [
            1
          ]
        },
        "entry": {
          "$ref": "#/definitions/entry"
        }
      }
    }
  }
}
